Hagarg Ryonis	The Lier-in-Wait	Usually appears as a huge, reptilian monster.	DL, WH
Karakal	-	An elf-like humanoid.	DL, WH
Lobon	-	Appears as ivy-crowned youth bearing a spear.	DC, DL, WH
Nath-Horthath	-	Chief god of Celephaïs.	CE, DL, DQ, KA
Oukranos	-	River god	DQ
Tamash	-	Appears as a short, silver-skinned, ebon-haired, and bearded man.	DC, DL, MG, WH
Zo-Kalar	-	God of birth and death.	DC, WH
